^G:\COCOSPROJECTS\POKEMON\PROJ.WIN32\RELEASE.WIN32\APPDELEGATE.OBJ|G:\COCOSPROJECTS\POKEMON\PROJ.WIN32\RELEASE.WIN32\APPPOKEMON.OBJ|G:\COCOSPROJECTS\POKEMON\PROJ.WIN32\RELEASE.WIN32\BELTUI.OBJ|G:\COCOSPROJECTS\POKEMON\PROJ.WIN32\RELEASE.WIN32\CHARACTER.OBJ|G:\COCOSPROJECTS\POKEMON\PROJ.WIN32\RELEASE.WIN32\DEBUG.OBJ|G:\COCOSPROJECTS\POKEMON\PROJ.WIN32\RELEASE.WIN32\GAME.RES|G:\COCOSPROJECTS\POKEMON\PROJ.WIN32\RELEASE.WIN32\MAIN.OBJ|G:\COCOSPROJECTS\POKEMON\PROJ.WIN32\RELEASE.WIN32\MAPMANAGER.OBJ|G:\COCOSPROJECTS\POKEMON\PROJ.WIN32\RELEASE.WIN32\POKEMON.OBJ|G:\COCOSPROJECTS\POKEMON\PROJ.WIN32\RELEASE.WIN32\SCENEMANAGER.OBJ|G:\COCOSPROJECTS\POKEMON\PROJ.WIN32\RELEASE.WIN32\SOUNDMANAGER.OBJ|G:\COCOSPROJECTS\POKEMON\PROJ.WIN32\RELEASE.WIN32\TRAINER.OBJ|G:\COCOSPROJECTS\POKEMON\PROJ.WIN32\RELEASE.WIN32\UIMANAGER.OBJ
G:\COCOSPROJECTS\POKEMON\PROJ.WIN32\RELEASE.WIN32\POKEMON.EXE
G:\COCOSPROJECTS\POKEMON\PROJ.WIN32\RELEASE.WIN32\POKEMON.PDB
